…
``` r
devtools::install_github("viana-guilherme/fitnessbrowseR")
```

## Usage

The package contains three functions at this time

``` r
library(fitnessbrowseR)

# prints all organism codes available in the database
getOrganismCodes()
#> # A tibble: 51 × 2
#>    Organism                                   OrgID          
#>    <chr>                                      <chr>          
#>  1 Acidovorax sp. GW101-3H11                  acidovorax_3H11
#>  2 Azospirillum brasilense Sp245              azobra         
#>  3 Bacteroides thetaiotaomicron VPI-5482      Btheta         
#>  4 Bifidobacterium breve UCC2003              Bifido         
#>  5 Burkholderia phytofirmans PsJN             BFirm          
#>  6 Caulobacter crescentus NA1000              Caulo          
#>  7 Cupriavidus basilensis FW507-4G11          Cup4G11        
#>  8 Dechlorosoma suillum PS                    PS             
#>  9 Desulfovibrio vulgaris Hildenborough JW710 DvH            
#> 10 Desulfovibrio vulgaris Miyazaki F          Miya           
#> # ℹ 41 more rows
…
# searches fitness data in all available conditions for genes PP_2675 and PP_2676 in P. putida
searchFitnessBrowser(gene = c("PP_2675", "PP_2676"), OrgID = "Putida")
#> retrieving fitness data for PP_2675
#> retrieving fitness data for PP_2676
#> # A tibble: 600 × 5
#>    group         condition           fitness `t score` gene   
#>    <chr>         <chr>                 <dbl>     <dbl> <chr>  
#>  1 carbon source 1,2-Propanediol (C)    -1.1      -3.1 PP_2675
#>  2 carbon source 1,2-Propanediol (C)    -0.8      -3   PP_2675
#>  3 carbon source 1,3-Butandiol (C)      -1.1      -3.6 PP_2675
#>  4 carbon source 1,3-Butandiol (C)      -1.9      -4.5 PP_2675
#>  5 carbon source 1,4-Butanediol (C)     -1.2      -2.9 PP_2675
#>  6 carbon source 1,4-Butanediol (C)     -1.1      -3.1 PP_2675
#>  7 carbon source 1,5-Pentanediol (C)    -2.6      -3.2 PP_2675
#>  8 carbon source 1,5-Pentanediol (C)    -3.7      -4.2 PP_2675
#>  9 carbon source 1-Pentanol (C)         -3.2      -6.1 PP_2675
#> 10 carbon source 1-Pentanol (C)         -3.5      -6.5 PP_2675
#> # ℹ 590 more rows
```
